<?xml version="1.0" encoding="UTF-8" standalone="no"?>
<svg
   version="1.0"
   width="453.33334"
   height="359.99594"
   viewBox="0 0 68.000002 53.999391"
   stroke="#111111"
   stroke-width="5"
   id="svg2"
   sodipodi:docname="mute.svg"
   inkscape:export-filename="mute.svg"
   inkscape:export-xdpi="96"
   inkscape:export-ydpi="96"
   inkscape:version="1.4 (e7c3feb100, 2024-10-09)"
   xmlns:inkscape="http://www.inkscape.org/namespaces/inkscape"
   xmlns:sodipodi="http://sodipodi.sourceforge.net/DTD/sodipodi-0.dtd"
   xmlns="http://www.w3.org/2000/svg"
   xmlns:svg="http://www.w3.org/2000/svg">
  <defs
     id="defs2" />
  <sodipodi:namedview
     id="namedview2"
     pagecolor="#ffffff"
     bordercolor="#000000"
     borderopacity="0.25"
     inkscape:showpageshadow="2"
     inkscape:pageopacity="0.0"
     inkscape:pagecheckerboard="0"
     inkscape:deskcolor="#d1d1d1"
     inkscape:zoom="1.6"
     inkscape:cx="226.25"
     inkscape:cy="183.125"
     inkscape:window-width="2560"
     inkscape:window-height="1011"
     inkscape:window-x="0"
     inkscape:window-y="0"
     inkscape:window-maximized="1"
     inkscape:current-layer="svg2" />
  <path
     d="m 35.5,2.4996961 -17,14.9999999 h -16 v 19 h 16 l 17,15 z"
     fill="#111111"
     stroke-linejoin="round"
     id="path1" />
  <path
     d="m 45.5,14.499696 20,24 m 0,-24 -20,24"
     fill="none"
     stroke-linecap="round"
     id="path2" />
</svg>
